HW4/HW4_sample_tb/waveform.vcd
$version Generated by VerilatedVcd $end
$date Wed Jun 12 17:17:03 2024 $end
$timescale 1s $end

 $scope module TOP $end
  $var wire  1 m! clk $end
  $var wire  1 o! finish $end
  $var wire  1 n! rst $end
  $scope module hw3_tb $end
   $var wire 32 p! DWIDTH [31:0] $end
   $var wire  1 m! clk $end
   $var wire 32 7! cycle_count [31:0] $end
   $var wire 32 r! cycle_for_ans [31:0] $end
   $var wire  1 o! finish $end
   $var wire 32 X! golden_dmem[0] [31:0] $end
   $var wire 32 b! golden_dmem[10] [31:0] $end
   $var wire 32 c! golden_dmem[11] [31:0] $end
   $var wire 32 d! golden_dmem[12] [31:0] $end
   $var wire 32 e! golden_dmem[13] [31:0] $end
   $var wire 32 f! golden_dmem[14] [31:0] $end
   $var wire 32 g! golden_dmem[15] [31:0] $end
   $var wire 32 Y! golden_dmem[1] [31:0] $end
   $var wire 32 Z! golden_dmem[2] [31:0] $end
   $var wire 32 [! golden_dmem[3] [31:0] $end
   $var wire 32 \! golden_dmem[4] [31:0] $end
   $var wire 32 ]! golden_dmem[5] [31:0] $end
   $var wire 32 ^! golden_dmem[6] [31:0] $end
   $var wire 32 _! golden_dmem[7] [31:0] $end
   $var wire 32 `! golden_dmem[8] [31:0] $end
   $var wire 32 a! golden_dmem[9] [31:0] $end
   $var wire 32 8! golden_reg[0] [31:0] $end
   $var wire 32 B! golden_reg[10] [31:0] $end
   $var wire 32 C! golden_reg[11] [31:0] $end
   $var wire 32 D! golden_reg[12] [31:0] $end
   $var wire 32 E! golden_reg[13] [31:0] $end
   $var wire 32 F! golden_reg[14] [31:0] $end
   $var wire 32 G! golden_reg[15] [31:0] $end
   $var wire 32 H! golden_reg[16] [31:0] $end
   $var wire 32 I! golden_reg[17] [31:0] $end
   $var wire 32 J! golden_reg[18] [31:0] $end
   $var wire 32 K! golden_reg[19] [31:0] $end
   $var wire 32 9! golden_reg[1] [31:0] $end
   $var wire 32 L! golden_reg[20] [31:0] $end
   $var wire 32 M! golden_reg[21] [31:0] $end
   $var wire 32 N! golden_reg[22] [31:0] $end
   $var wire 32 O! golden_reg[23] [31:0] $end
   $var wire 32 P! golden_reg[24] [31:0] $end
   $var wire 32 Q! golden_reg[25] [31:0] $end
   $var wire 32 R! golden_reg[26] [31:0] $end
   $var wire 32 S! golden_reg[27] [31:0] $end
   $var wire 32 T! golden_reg[28] [31:0] $end
   $var wire 32 U! golden_reg[29] [31:0] $end
   $var wire 32 :! golden_reg[2] [31:0] $end
   $var wire 32 V! golden_reg[30] [31:0] $end
   $var wire 32 W! golden_reg[31] [31:0] $end
   $var wire 32 ;! golden_reg[3] [31:0] $end
   $var wire 32 <! golden_reg[4] [31:0] $end
   $var wire 32 =! golden_reg[5] [31:0] $end
   $var wire 32 >! golden_reg[6] [31:0] $end
   $var wire 32 ?! golden_reg[7] [31:0] $end
   $var wire 32 @! golden_reg[8] [31:0] $end
   $var wire 32 A! golden_reg[9] [31:0] $end
   $var wire 32 6! i [31:0] $end
   $var wire  1 n! rst $end
   $var wire  1 h! start $end
   $var wire 32 q! tmp [31:0] $end
   $scope module core_top_inst $end
    $var wire 32 p! DWIDTH [31:0] $end
    $var wire  3 t! J_TYPE_BEQ [2:0] $end
    $var wire  3 w! J_TYPE_J [2:0] $end
    $var wire  3 u! J_TYPE_JAL [2:0] $end
    $var wire  3 v! J_TYPE_JR [2:0] $end
    $var wire  3 s! J_TYPE_NOP [2:0] $end
    $var wire 32 I R1_instr [31:0] $end
    $var wire 32 H R1_pc [31:0] $end
    $var wire  1 S R2_en_rdata $end
    $var wire 32 Q R2_imm [31:0] $end
    $var wire 32 L R2_jump_addr [31:0] $end
    $var wire  3 K R2_jump_type [2:0] $end
    $var wire  4 O R2_op [3:0] $end
    $var wire 32 J R2_pc [31:0] $end
    $var wire  5 R R2_rdst_id [4:0] $end
    $var wire 32 T R2_rs1_reg_file_out [31:0] $end
    $var wire 32 U R2_rs2_reg_file_out [31:0] $end
    $var wire  2 P R2_ssel [1:0] $end
    $var wire  1 M R2_we_dmem $end
    $var wire  1 N R2_we_regfile $end
    $var wire  1 [ R3_en_rdata $end
    $var wire 32 W R3_rd [31:0] $end
    $var wire  5 X R3_rdst_id [4:0] $end
    $var wire 32 Y R3_rs2_reg_file_out [31:0] $end
    $var wire  1 V R3_we_dmem $end
    $var wire  1 Z R3_we_regfile $end
    $var wire 32 ] R4_rdst [31:0] $end
    $var wire  5 \ R4_rdst_id [4:0] $end
    $var wire  1 ^ R4_we_regfile $end
    $var wire 32 j! beq_addr [31:0] $end
    $var wire  1 ` branch_harzard $end
    $var wire  1 m! clk $end
    $var wire  1 _ data_harzard $end
    $var wire  1 a debug $end
    $var wire  1 9 en_rdata $end
    $var wire 32 < imm [31:0] $end
    $var wire 32 k! instr [31:0] $end
    $var wire 32 6 jump_addr [31:0] $end
    $var wire  3 5 jump_type [2:0] $end
    $var wire  4 : op [3:0] $end
    $var wire  1 F overflow $end
    $var wire 32 i! pc [31:0] $end
    $var wire 32 x! ra [31:0] $end
    $var wire 32 D rd [31:0] $end
    $var wire 32 G rdata [31:0] $end
    $var wire 32 @ rdst [31:0] $end
    $var wire  5 ? rdst_id [4:0] $end
    $var wire  5 = rs1_id [4:0] $end
    $var wire 32 A rs1_reg_file_out [31:0] $end
    $var wire 32 C rs2 [31:0] $end
    $var wire  5 > rs2_id [4:0] $end
    $var wire 32 B rs2_reg_file_out [31:0] $end
    $var wire  1 n! rst $end
    $var wire  2 ; ssel [1:0] $end
    $var wire  1 8 we_dmem $end
    $var wire  1 7 we_regfile $end
    $var wire  1 E zero $end
    $scope module alu_inst $end
     $var wire 32 p! DWIDTH [31:0] $end
     $var wire  4 O op [3:0] $end
     $var wire  1 F overflow $end
     $var wire 32 D rd [31:0] $end
     $var wire 32 T rs1 [31:0] $end
     $var wire 32 C rs2 [31:0] $end
     $var wire  1 E zero $end
    $upscope $end
    $scope module decode_inst $end
     $var wire 32 p! DWIDTH [31:0] $end
     $var wire  3 t! J_TYPE_BEQ [2:0] $end
     $var wire  3 w! J_TYPE_J [2:0] $end
     $var wire  3 u! J_TYPE_JAL [2:0] $end
     $var wire  3 v! J_TYPE_JR [2:0] $end
     $var wire  3 s! J_TYPE_NOP [2:0] $end
     $var wire  4 {! OP_ADD [3:0] $end
     $var wire  4 y! OP_AND [3:0] $end
     $var wire  4 }! OP_NOR [3:0] $end
     $var wire  4 !" OP_NOT_DEFINED [3:0] $end
     $var wire  4 z! OP_OR [3:0] $end
     $var wire  4 ~! OP_SLT [3:0] $end
     $var wire  4 |! OP_SUB [3:0] $end
     $var wire  1 9 en_rdata $end
     $var wire 32 < imm [31:0] $end
     $var wire 32 I instr [31:0] $end
     $var wire 32 6 jump_addr [31:0] $end
     $var wire  3 5 jump_type [2:0] $end
     $var wire  4 : op [3:0] $end
     $var wire  5 ? rdst_id [4:0] $end
     $var wire  5 = rs1_id [4:0] $end
     $var wire  5 > rs2_id [4:0] $end
     $var wire  2 ; ssel [1:0] $end
     $var wire  1 8 we_dmem $end
     $var wire  1 7 we_regfile $end
    $upscope $end
    $scope module dmem_inst $end
     $var wire 32 c RAM[0] [31:0] $end
     $var wire 32 m RAM[10] [31:0] $end
     $var wire 32 n RAM[11] [31:0] $end
     $var wire 32 o RAM[12] [31:0] $end
     $var wire 32 p RAM[13] [31:0] $end
     $var wire 32 q RAM[14] [31:0] $end
     $var wire 32 r RAM[15] [31:0] $end
     $var wire 32 d RAM[1] [31:0] $end
     $var wire 32 e RAM[2] [31:0] $end
     $var wire 32 f RAM[3] [31:0] $end
     $var wire 32 g RAM[4] [31:0] $end
     $var wire 32 h RAM[5] [31:0] $end
     $var wire 32 i RAM[6] [31:0] $end
     $var wire 32 j RAM[7] [31:0] $end
     $var wire 32 k RAM[8] [31:0] $end
     $var wire 32 l RAM[9] [31:0] $end
     $var wire  6 b addr [5:0] $end
     $var wire  1 m! clk $end
     $var wire 32 # idx [31:0] $end
     $var wire 32 G rdata [31:0] $end
     $var wire 32 Y wdata [31:0] $end
     $var wire  1 V we $end
    $upscope $end
    $scope module imem_inst $end
     $var wire 32 $ RAM[0] [31:0] $end
     $var wire 32 . RAM[10] [31:0] $end
     $var wire 32 / RAM[11] [31:0] $end
     $var wire 32 0 RAM[12] [31:0] $end
     $var wire 32 1 RAM[13] [31:0] $end
     $var wire 32 2 RAM[14] [31:0] $end
     $var wire 32 3 RAM[15] [31:0] $end
     $var wire 32 % RAM[1] [31:0] $end
     $var wire 32 & RAM[2] [31:0] $end
     $var wire 32 ' RAM[3] [31:0] $end
     $var wire 32 ( RAM[4] [31:0] $end
     $var wire 32 ) RAM[5] [31:0] $end
     $var wire 32 * RAM[6] [31:0] $end
     $var wire 32 + RAM[7] [31:0] $end
     $var wire 32 , RAM[8] [31:0] $end
     $var wire 32 - RAM[9] [31:0] $end
     $var wire  6 l! addr [5:0] $end
     $var wire 32 k! rdata [31:0] $end
    $upscope $end
    $scope module reg_file_inst $end
     $var wire 32 p! DWIDTH [31:0] $end
     $var wire 32 s R[0] [31:0] $end
     $var wire 32 } R[10] [31:0] $end
     $var wire 32 ~ R[11] [31:0] $end
     $var wire 32 !! R[12] [31:0] $end
     $var wire 32 "! R[13] [31:0] $end
     $var wire 32 #! R[14] [31:0] $end
     $var wire 32 $! R[15] [31:0] $end
     $var wire 32 %! R[16] [31:0] $end
     $var wire 32 &! R[17] [31:0] $end
     $var wire 32 '! R[18] [31:0] $end
     $var wire 32 (! R[19] [31:0] $end
     $var wire 32 t R[1] [31:0] $end
     $var wire 32 )! R[20] [31:0] $end
     $var wire 32 *! R[21] [31:0] $end
     $var wire 32 +! R[22] [31:0] $end
     $var wire 32 ,! R[23] [31:0] $end
     $var wire 32 -! R[24] [31:0] $end
     $var wire 32 .! R[25] [31:0] $end
     $var wire 32 /! R[26] [31:0] $end
     $var wire 32 0! R[27] [31:0] $end
     $var wire 32 1! R[28] [31:0] $end
     $var wire 32 2! R[29] [31:0] $end
     $var wire 32 u R[2] [31:0] $end
     $var wire 32 3! R[30] [31:0] $end
     $var wire 32 4! R[31] [31:0] $end
     $var wire 32 v R[3] [31:0] $end
     $var wire 32 w R[4] [31:0] $end
     $var wire 32 x R[5] [31:0] $end
     $var wire 32 y R[6] [31:0] $end
     $var wire 32 z R[7] [31:0] $end
     $var wire 32 { R[8] [31:0] $end
     $var wire 32 | R[9] [31:0] $end
     $var wire  1 m! clk $end
     $var wire 32 ] rdst [31:0] $end
     $var wire  5 \ rdst_id [4:0] $end
     $var wire 32 A rs1 [31:0] $end
     $var wire  5 = rs1_id [4:0] $end
     $var wire 32 B rs2 [31:0] $end
     $var wire  5 > rs2_id [4:0] $end
     $var wire  1 n! rst $end
     $var wire  1 ^ we $end
     $scope module unnamedblk1 $end
      $var wire 32 4 i [31:0] $end
     $upscope $end
     $scope module unnamedblk2 $end
      $var wire 32 5! i [31:0] $end
     $upscope $end
    $upscope $end
   $upscope $end
  $upscope $end
 $upscope $end
$enddefinitions $end


#0
b00000000000000000000000000010000 #
b00100000000010000000000000010111 $
b00100001000010010000000000101101 %
b10101100000010010000000000001000 &
b10001100000010100000000000001000 '
b00100001010010111111111111010011 (
b00010001000010110000000000000011 )
b10101100000010000000000000000000 *
b10001100000010100000000000001000 +
b00100001010010111111111111010011 ,
b00001000000000000000000000001001 -
b00000000000000000000000000000000 .
b00000000000000000000000000000000 /
b00000000000000000000000000000000 0
b00000000000000000000000000000000 1
b00000000000000000000000000000000 2
b00000000000000000000000000000000 3
b00000000000000000000000000100000 4
b000 5
b00000000000000000000000000000000 6
07
08
09
b1111 :
b00 ;
b00000000000000000000000000000000 <
b00000 =
b00000 >
b00000 ?
b00000000000000000000000000000000 @
b00000000000000000000000000000000 A
b00000000000000000000000000000000 B
b00000000000000000000000000000000 C
b00000000000000000000000000000000 D
1E
0F
b00000000000000000000000000000000 G
b00000000000000000000000000000000 H
b00000000000000000000000000000000 I
b00000000000000000000000000000000 J
b000 K
b00000000000000000000000000000000 L
0M
0N
b0000 O
b00 P
b00000000000000000000000000000000 Q
b00000 R
0S
b00000000000000000000000000000000 T
b00000000000000000000000000000000 U
0V
b00000000000000000000000000000000 W
b00000 X
b00000000000000000000000000000000 Y
0Z
0[
b00000 \
b00000000000000000000000000000000 ]
0^
0_
0`
0a
b000000 b
b00000000000000000000000000000000 c
b00000000000000000000000000000000 d
b00000000000000000000000000000000 e
b00000000000000000000000000000000 f
b00000000000000000000000000000000 g
b00000000000000000000000000000000 h
b00000000000000000000000000000000 i
b00000000000000000000000000000000 j
b00000000000000000000000000000000 k
b00000000000000000000000000000000 l
b00000000000000000000000000000000 m
b00000000000000000000000000000000 n
b00000000000000000000000000000000 o
b00000000000000000000000000000000 p
b00000000000000000000000000000000 q
b00000000000000000000000000000000 r
b00000000000000000000000000000000 s
b00000000000000000000000000000000 t
b00000000000000000000000000000000 u
b00000000000000000000000000000000 v
b00000000000000000000000000000000 w
b00000000000000000000000000000000 x
b00000000000000000000000000000000 y
b00000000000000000000000000000000 z
b00000000000000000000000000000000 {
b00000000000000000000000000000000 |
b00000000000000000000000000000000 }
b00000000000000000000000000000000 ~
b00000000000000000000000000000000 !!
b00000000000000000000000000000000 "!
b00000000000000000000000000000000 #!
b00000000000000000000000000000000 $!
b00000000000000000000000000000000 %!
b00000000000000000000000000000000 &!
b00000000000000000000000000000000 '!
b00000000000000000000000000000000 (!
b00000000000000000000000000000000 )!
b00000000000000000000000000000000 *!
b00000000000000000000000000000000 +!
b00000000000000000000000000000000 ,!
b00000000000000000000000000000000 -!
b00000000000000000000000000000000 .!
b00000000000000000000000000000000 /!
b00000000000000000000000000000000 0!
b00000000000000000000000000000000 1!
b00000000000000000000000000000000 2!
b00000000000000000000000000000000 3!
b00000000000000000000000000000000 4!
b00000000000000000000000000000000 5!
b00000000000000000000000000000000 6!
b00000000000000000000000000000000 7!
b00000000000000000000000000000000 8!
b00000000000000000000000000000000 9!
b00000000000000000000000000000000 :!
b00000000000000000000000000000000 ;!
b00000000000000000000000000000000 <!
b00000000000000000000000000000000 =!
b00000000000000000000000000000000 >!
b00000000000000000000000000000000 ?!
b00000000000000000000000000000000 @!
b00000000000000000000000000000000 A!
b00000000000000000000000000000000 B!
b00000000000000000000000000000000 C!
b00000000000000000000000000000000 D!
b00000000000000000000000000000000 E!
b00000000000000000000000000000000 F!
b00000000000000000000000000000000 G!
b00000000000000000000000000000000 H!
b00000000000000000000000000000000 I!
b00000000000000000000000000000000 J!
b00000000000000000000000000000000 K!
b00000000000000000000000000000000 L!
b00000000000000000000000000000000 M!
b00000000000000000000000000000000 N!
b00000000000000000000000000000000 O!
b00000000000000000000000000000000 P!
b00000000000000000000000000000000 Q!
b00000000000000000000000000000000 R!
b00000000000000000000000000000000 S!
b00000000000000000000000000000000 T!
b00000000000000000000000000000000 U!
b00000000000000000000000000000000 V!
b00000000000000000000000000000000 W!
b00000000000000000000000000000000 X!
b00000000000000000000000000000000 Y!
b00000000000000000000000000000000 Z!
b00000000000000000000000000000000 [!
b00000000000000000000000000000000 \!
b00000000000000000000000000000000 ]!
b00000000000000000000000000000000 ^!
b00000000000000000000000000000000 _!
b00000000000000000000000000000000 `!
b00000000000000000000000000000000 a!
b00000000000000000000000000000000 b!
b00000000000000000000000000000000 c!
b00000000000000000000000000000000 d!
b00000000000000000000000000000000 e!
b00000000000000000000000000000000 f!
b00000000000000000000000000000000 g!
1h!
b00000000000000000000000000000000 i!
b00000000000000000000000000000100 j!
b00100000000010000000000000010111 k!
b000000 l!
0m!
1n!
0o!
b00000000000000000000000000100000 p!
b00000000000000000000000000000000 q!
b00000000000000000000000000010100 r!
b000 s!
b001 t!
b010 u!
b011 v!
b100 w!
b00000000000000000000000000000000 x!
b0000 y!
b0001 z!
b0010 {!
b0110 |!
b1100 }!
b0111 ~!
b1111 !"
#1
17
b0010 :
b00000000000000000000000000010111 <
b01000 >
b01000 ?
0E
b00100000000010000000000000010111 I
b1111 O
b00000000000000000000000000100000 5!
1m!
#2
0h!
0m!
#3
b00000000000000000000000000010111 C
b00000000000000000000000000010111 D
1N
b0010 O
b00000000000000000000000000010111 Q
b01000 R
b00000000000000000000000001100000 j!
1m!
#4
b00000000000000000000000000000001 7!
0m!
#5
b00000000000000000000000000010111 @
b00000000000000000000000000010111 W
b01000 X
1Z
b010111 b
b00000000000000000000000000000100 i!
b00100001000010010000000000101101 k!
b000100 l!
1m!
0n!
#6
b00000000000000000000000000000010 7!
0m!
#7
b00000000000000000000000000101101 <
b01000 =
b01001 >
b01001 ?
b00000000000000000000000000010111 A
b00000000000000000000000000000100 H
b00100001000010010000000000101101 I
b01000 \
b00000000000000000000000000010111 ]
1^
b00000000000000000000000000010111 {
1m!
#8
b00000000000000000000000000000011 7!
0m!
#9
b00000000000000000000000000000000 C
b00000000000000000000000000000000 D
1E
0N
b0000 O
b00000000000000000000000000000000 Q
b00000 R
1_
1a
b00000000000000000000000000000100 j!
1m!
#10
b00000000000000000000000000000100 7!
0m!
#11
b00000000000000000000000000000000 @
b00000000000000000000000000101101 C
b00000000000000000000000001000100 D
0E
b00000000000000000000000000000100 J
1N
b0010 O
b00000000000000000000000000101101 Q
b01001 R
b00000000000000000000000000010111 T
b00000000000000000000000000000000 W
b00000 X
0Z
0_
b000000 b
b00000000000000000000000000001000 i!
b00000000000000000000000010111100 j!
b10101100000010010000000000001000 k!
b001000 l!
1m!
#12
b00000000000000000000000000000101 7!
0m!
#13
07
18
b00000000000000000000000000001000 <
b00000 =
b00000000000000000000000001000100 @
b00000000000000000000000000000000 A
b00000000000000000000000000001000 H
b10101100000010010000000000001000 I
b00000000000000000000000001000100 W
b01001 X
1Z
b00000 \
b00000000000000000000000000000000 ]
0^
b000100 b
1m!
#14
b00000000000000000000000000000110 7!
0m!
#15
b00000000000000000000000001000100 B
b00000000000000000000000000001000 C
b00000000000000000000000000001000 D
b00000000000000000000000000001000 J
1M
0N
b00000000000000000000000000001000 Q
b00000000000000000000000000000000 T
b01001 \
b00000000000000000000000001000100 ]
1^
b00000000000000000000000001000100 |
b00000000000000000000000000001100 i!
b00000000000000000000000000101100 j!
b10001100000010100000000000001000 k!
b001100 l!
1m!
#16
b00000000000000000000000000000111 7!
0m!
#17
b00000000000000000000000000001000 @
b00000000000000000000000000000000 C
b00000000000000000000000000000000 D
1E
b00000000000000000000000000000000 J
0M
b0000 O
b00000000000000000000000000000000 Q
b00000 R
1V
b00000000000000000000000000001000 W
0Z
1_
b001000 b
b00000000000000000000000000000100 j!
1m!
#18
b00000000000000000000000000001000 7!
0m!
#19
17
08
19
b01010 >
b01010 ?
b00000000000000000000000000000000 @
b00000000000000000000000000000000 B
b00000000000000000000000000001000 C
b00000000000000000000000000001000 D
0E
b00000000000000000000000000001100 H
b10001100000010100000000000001000 I
b00000000000000000000000000001000 J
1M
b0010 O
b00000000000000000000000000001000 Q
b01001 R
b00000000000000000000000001000100 U
0V
b00000000000000000000000000000000 W
b00000 X
b00000000000000000000000000001000 ]
0^
0_
b000000 b
b00000000000000000000000000101100 j!
1m!
#20
b00000000000000000000000000001001 7!
0m!
#21
b00000000000000000000000000001000 @
b00000000000000000000000001000100 G
b00000000000000000000000000001100 J
0M
1N
b01010 R
1S
b00000000000000000000000000000000 U
1V
b00000000000000000000000000001000 W
b01001 X
b00000000000000000000000001000100 Y
b00000 \
b00000000000000000000000000000000 ]
b001000 b
b00000000000000000000000001000100 e
b00000000000000000000000000010000 i!
b00000000000000000000000000110000 j!
b00100001010010111111111111010011 k!
b010000 l!
1m!
#22
b00000000000000000000000000001010 7!
0m!
#23
09
b11111111111111111111111111010011 <
b01010 =
b01011 >
b01011 ?
b00000000000000000000000001000100 @
b00000000000000000000000000010000 H
b00100001010010111111111111010011 I
0V
b01010 X
b00000000000000000000000000000000 Y
1Z
1[
b01001 \
b00000000000000000000000000001000 ]
1m!
#24
b00000000000000000000000000001011 7!
0m!
#25
b00000000000000000000000001000100 A
b00000000000000000000000000000000 C
b00000000000000000000000000000000 D
1E
b00000000000000000000000000000000 J
0N
b0000 O
b00000000000000000000000000000000 Q
b00000 R
0S
b01010 \
b00000000000000000000000001000100 ]
1^
1_
b00000000000000000000000001000100 }
b00000000000000000000000000000100 j!
1m!
#26
b00000000000000000000000000001100 7!
0m!
#27
b00000000000000000000000000000000 @
b11111111111111111111111111010011 C
b00000000000000000000000000010111 D
0E
b00000000000000000000000000000000 G
b00000000000000000000000000010000 J
1N
b0010 O
b11111111111111111111111111010011 Q
b01011 R
b00000000000000000000000001000100 T
b00000000000000000000000000000000 W
b00000 X
0Z
0[
0_
b000000 b
b00000000000000000000000000010100 i!
b11111111111111111111111101100000 j!
b00010001000010110000000000000011 k!
b010100 l!
1m!
#28
b00000000000000000000000000001101 7!
0m!
#29
b001 5
07
b1111 :
b00000000000000000000000000000011 <
b01000 =
b00000000000000000000000000010111 @
b00000000000000000000000000010111 A
b00000000000000000000000000010100 H
b00010001000010110000000000000011 I
b00000000000000000000000000010111 W
b01011 X
1Z
b00000 \
b00000000000000000000000000000000 ]
0^
b010111 b
1m!
#30
b00000000000000000000000000001110 7!
0m!
#31
b00000000000000000000000000010111 B
b00000000000000000000000000000011 C
b00000000000000000000000000000000 D
b00000000000000000000000000010100 J
b001 K
0N
b1111 O
b00000000000000000000000000000011 Q
b00000000000000000000000000010111 T
b01011 \
b00000000000000000000000000010111 ]
1^
b00000000000000000000000000010111 ~
b00000000000000000000000000011000 i!
b00000000000000000000000000100100 j!
b10101100000010000000000000000000 k!
b011000 l!
1m!
#32
b00000000000000000000000000001111 7!
0m!
#33
b000 5
18
b0010 :
b00000000000000000000000000000000 <
b00000 =
b01000 >
b01000 ?
b00000000000000000000000000000000 @
b00000000000000000000000000000000 A
b00000000000000000000000000011000 H
b10101100000010000000000000000000 I
b00000000000000000000000000010111 U
b00000000000000000000000000000000 W
0Z
b000000 b
b00000000000000000000000000100100 i!
b00001000000000000000000000001001 k!
b100100 l!
1m!
#34
b00000000000000000000000000010000 7!
0m!
#35
b100 5
b00000000000000000000000000001001 6
08
b1111 :
b00000 >
b00000 ?
b00000000000000000000000000000000 B
b00000000000000000000000000000000 C
1E
b00000000000000000000000000100100 H
b00001000000000000000000000001001 I
b00000000000000000000000000000000 J
b000 K
b0000 O
b00000000000000000000000000000000 Q
b00000 R
b00000000000000000000000000000000 T
b00000000000000000000000000000000 U
b00000000000000000000000000010111 Y
b00000000000000000000000000000000 ]
0^
1`
b00000000000000000000000000000100 i!
b00000000000000000000000000000100 j!
b00100001000010010000000000101101 k!
b000100 l!
1m!
#36
b00000000000000000000000000010001 7!
0m!
#37
b000 5
b00000000000000000000000000000000 6
17
b0010 :
b00000000000000000000000000101101 <
b01000 =
b01001 >
b01001 ?
b00000000000000000000000000010111 A
b00000000000000000000000001000100 B
0E
b00000000000000000000000000000100 H
b00100001000010010000000000101101 I
b00000000000000000000000000100100 J
b100 K
b00000000000000000000000000001001 L
b1111 O
b00000 X
b00000000000000000000000000000000 Y
0`
b00000000000000000000000000100100 i!
b00000000000000000000000000101000 j!
b00001000000000000000000000001001 k!
b100100 l!
1m!
#38
b00000000000000000000000000010010 7!
0m!
#39
b100 5
b00000000000000000000000000001001 6
07
b1111 :
b00000000000000000000000000000000 <
b00000 =
b00000 >
b00000 ?
b00000000000000000000000000000000 A
b00000000000000000000000000000000 B
b00000000000000000000000000101101 C
b00000000000000000000000001000100 D
b00000000000000000000000000100100 H
b00001000000000000000000000001001 I
b00000000000000000000000000000100 J
b000 K
b00000000000000000000000000000000 L
1N
b0010 O
b00000000000000000000000000101101 Q
b01001 R
b00000000000000000000000000010111 T
b00000000000000000000000001000100 U
b00000 \
b00000000000000000000000000001000 i!
b00000000000000000000000010111100 j!
b10101100000010010000000000001000 k!
b001000 l!
1m!
#40
b00000000000000000000000000010011 7!
0m!
#41
b000 5
b00000000000000000000000000000000 6
18
b0010 :
b00000000000000000000000000001000 <
b01001 >
b01001 ?
b00000000000000000000000001000100 @
b00000000000000000000000001000100 B
b00000000000000000000000000000000 C
b00000000000000000000000000000000 D
b00000000000000000000000000001000 H
b10101100000010010000000000001000 I
b00000000000000000000000000100100 J
b100 K
b00000000000000000000000000001001 L
0N
b1111 O
b00000000000000000000000000000000 Q
b00000 R
b00000000000000000000000000000000 T
b00000000000000000000000000000000 U
b00000000000000000000000001000100 W
b01001 X
b00000000000000000000000001000100 Y
1Z
b000100 b
b00000000000000000000000000100100 i!
b00000000000000000000000000101000 j!
b00001000000000000000000000001001 k!
b100100 l!
1m!
#42
b00000000000000000000000000010100 7!
0m!
#43
b100 5
b00000000000000000000000000001001 6
08
b1111 :
b00000000000000000000000000000000 <
b00000 >
b00000 ?
b00000000000000000000000000000000 @
b00000000000000000000000000000000 B
b00000000000000000000000000001000 C
b00000000000000000000000000001000 D
b00000000000000000000000000100100 H
b00001000000000000000000000001001 I
b00000000000000000000000000001000 J
b000 K
b00000000000000000000000000000000 L
1M
b0010 O
b00000000000000000000000000001000 Q
b01001 R
b00000000000000000000000001000100 U
b00000000000000000000000000000000 W
b00000 X
b00000000000000000000000000000000 Y
0Z
b01001 \
b00000000000000000000000001000100 ]
1^
b000000 b
b00000000000000000000000000001100 i!
b00000000000000000000000000101100 j!
b10001100000010100000000000001000 k!
b001100 l!
1m!
