HW5/HW5_sample_tb/waveform.vcd
$version Generated by VerilatedVcd $end
$date Thu Jun 27 23:57:15 2024 $end
$timescale 1s $end

 $scope module TOP $end
  $var wire  1 F! clk $end
  $var wire  1 H! finish $end
  $var wire  1 G! rst $end
  $scope module hw3_tb $end
   $var wire 32 I! DWIDTH [31:0] $end
   $var wire  1 F! clk $end
   $var wire 32 $! cycle_count [31:0] $end
   $var wire 32 K! cycle_for_ans [31:0] $end
   $var wire  1 H! finish $end
   $var wire 32 %! golden_reg[0] [31:0] $end
   $var wire 32 /! golden_reg[10] [31:0] $end
   $var wire 32 0! golden_reg[11] [31:0] $end
   $var wire 32 1! golden_reg[12] [31:0] $end
   $var wire 32 2! golden_reg[13] [31:0] $end
   $var wire 32 3! golden_reg[14] [31:0] $end
   $var wire 32 4! golden_reg[15] [31:0] $end
   $var wire 32 5! golden_reg[16] [31:0] $end
   $var wire 32 6! golden_reg[17] [31:0] $end
   $var wire 32 7! golden_reg[18] [31:0] $end
   $var wire 32 8! golden_reg[19] [31:0] $end
   $var wire 32 &! golden_reg[1] [31:0] $end
   $var wire 32 9! golden_reg[20] [31:0] $end
   $var wire 32 :! golden_reg[21] [31:0] $end
   $var wire 32 ;! golden_reg[22] [31:0] $end
   $var wire 32 <! golden_reg[23] [31:0] $end
   $var wire 32 =! golden_reg[24] [31:0] $end
   $var wire 32 >! golden_reg[25] [31:0] $end
   $var wire 32 ?! golden_reg[26] [31:0] $end
   $var wire 32 @! golden_reg[27] [31:0] $end
   $var wire 32 A! golden_reg[28] [31:0] $end
   $var wire 32 B! golden_reg[29] [31:0] $end
   $var wire 32 '! golden_reg[2] [31:0] $end
   $var wire 32 C! golden_reg[30] [31:0] $end
   $var wire 32 D! golden_reg[31] [31:0] $end
   $var wire 32 (! golden_reg[3] [31:0] $end
   $var wire 32 )! golden_reg[4] [31:0] $end
   $var wire 32 *! golden_reg[5] [31:0] $end
   $var wire 32 +! golden_reg[6] [31:0] $end
   $var wire 32 ,! golden_reg[7] [31:0] $end
   $var wire 32 -! golden_reg[8] [31:0] $end
   $var wire 32 .! golden_reg[9] [31:0] $end
   $var wire 32 #! i [31:0] $end
   $var wire  1 G! rst $end
   $var wire  1 E! start $end
   $var wire 32 J! tmp [31:0] $end
   $scope module core_top_inst $end
    $var wire 34 Z BHT[0] [33:0] $end
    $var wire 34 \ BHT[1] [33:0] $end
    $var wire 32 I! DWIDTH [31:0] $end
    $var wire  2 T Forward_A [1:0] $end
    $var wire  2 U Forward_B [1:0] $end
    $var wire  2 V Forward_rs1 [1:0] $end
    $var wire  2 W Forward_rs2 [1:0] $end
    $var wire  3 M! J_TYPE_BEQ [2:0] $end
    $var wire  3 P! J_TYPE_J [2:0] $end
    $var wire  3 N! J_TYPE_JAL [2:0] $end
    $var wire  3 O! J_TYPE_JR [2:0] $end
    $var wire  3 L! J_TYPE_NOP [2:0] $end
    $var wire 32 Y R1_index [31:0] $end
    $var wire 32 ? R1_instr [31:0] $end
    $var wire 32 > R1_pc [31:0] $end
    $var wire  1 H R2_en_rdata $end
    $var wire 32 D R2_imm [31:0] $end
    $var wire  4 B R2_op [3:0] $end
    $var wire 32 Q! R2_pc [31:0] $end
    $var wire  5 G R2_rdst_id [4:0] $end
    $var wire  5 E R2_rs1_id [4:0] $end
    $var wire 32 I R2_rs1_reg_file_out [31:0] $end
    $var wire  5 F R2_rs2_id [4:0] $end
    $var wire 32 J R2_rs2_reg_file_out [31:0] $end
    $var wire  2 C R2_ssel [1:0] $end
    $var wire  1 @ R2_we_dmem $end
    $var wire  1 A R2_we_regfile $end
    $var wire  1 P R3_en_rdata $end
    $var wire 32 L R3_rd [31:0] $end
    $var wire  5 M R3_rdst_id [4:0] $end
    $var wire 32 N R3_rs2_reg_file_out [31:0] $end
    $var wire  1 K R3_we_dmem $end
    $var wire  1 O R3_we_regfile $end
    $var wire 32 R R4_rdst [31:0] $end
    $var wire  5 Q R4_rdst_id [4:0] $end
    $var wire  1 S R4_we_regfile $end
    $var wire 32 ' beq_addr [31:0] $end
    $var wire  1 S! branch_harzard $end
    $var wire  1 F! clk $end
    $var wire  1 R! data_harzard $end
    $var wire  1 T! debug $end
    $var wire  1 - en_rdata $end
    $var wire 32 0 imm [31:0] $end
    $var wire 32 X index [31:0] $end
    $var wire 32 ( instr [31:0] $end
    $var wire 32 * jump_addr [31:0] $end
    $var wire  3 ) jump_type [2:0] $end
    $var wire  4 . op [3:0] $end
    $var wire  1 < overflow $end
    $var wire 32 % pc [31:0] $end
    $var wire 32 & ra [31:0] $end
    $var wire 32 : rd [31:0] $end
    $var wire 32 = rdata [31:0] $end
    $var wire 32 4 rdst [31:0] $end
    $var wire  5 3 rdst_id [4:0] $end
    $var wire 32 7 rs1 [31:0] $end
    $var wire  5 1 rs1_id [4:0] $end
    $var wire 32 5 rs1_reg_file_out [31:0] $end
    $var wire 32 9 rs2 [31:0] $end
    $var wire  5 2 rs2_id [4:0] $end
    $var wire 32 6 rs2_reg_file_out [31:0] $end
    $var wire 32 8 rs2_tmp [31:0] $end
    $var wire  1 G! rst $end
    $var wire  2 / ssel [1:0] $end
    $var wire  1 , we_dmem $end
    $var wire  1 + we_regfile $end
    $var wire  1 ; zero $end
    $scope module alu_inst $end
     $var wire 32 I! DWIDTH [31:0] $end
     $var wire  4 B op [3:0] $end
     $var wire  1 < overflow $end
     $var wire 32 : rd [31:0] $end
     $var wire 32 7 rs1 [31:0] $end
     $var wire 32 9 rs2 [31:0] $end
     $var wire  1 ; zero $end
    $upscope $end
    $scope module decode_inst $end
     $var wire 32 I! DWIDTH [31:0] $end
     $var wire  3 M! J_TYPE_BEQ [2:0] $end
     $var wire  3 P! J_TYPE_J [2:0] $end
     $var wire  3 N! J_TYPE_JAL [2:0] $end
     $var wire  3 O! J_TYPE_JR [2:0] $end
     $var wire  3 L! J_TYPE_NOP [2:0] $end
     $var wire  4 W! OP_ADD [3:0] $end
     $var wire  4 U! OP_AND [3:0] $end
     $var wire  4 Y! OP_NOR [3:0] $end
     $var wire  4 [! OP_NOT_DEFINED [3:0] $end
     $var wire  4 V! OP_OR [3:0] $end
     $var wire  4 Z! OP_SLT [3:0] $end
     $var wire  4 X! OP_SUB [3:0] $end
     $var wire  1 - en_rdata $end
     $var wire 32 0 imm [31:0] $end
     $var wire 32 ? instr [31:0] $end
     $var wire 32 * jump_addr [31:0] $end
     $var wire  3 ) jump_type [2:0] $end
     $var wire  4 . op [3:0] $end
     $var wire  5 3 rdst_id [4:0] $end
     $var wire  5 1 rs1_id [4:0] $end
     $var wire  5 2 rs2_id [4:0] $end
     $var wire  2 / ssel [1:0] $end
     $var wire  1 , we_dmem $end
     $var wire  1 + we_regfile $end
    $upscope $end
    $scope module dmem_inst $end
     $var wire  6 ^ addr [5:0] $end
     $var wire  1 F! clk $end
     $var wire 32 # idx [31:0] $end
     $var wire 32 = rdata [31:0] $end
     $var wire 32 N wdata [31:0] $end
     $var wire  1 K we $end
    $upscope $end
    $scope module imem_inst $end
     $var wire  6 _ addr [5:0] $end
     $var wire 32 ( rdata [31:0] $end
    $upscope $end
    $scope module reg_file_inst $end
     $var wire 32 I! DWIDTH [31:0] $end
     $var wire 32 ` R[0] [31:0] $end
     $var wire 32 j R[10] [31:0] $end
     $var wire 32 k R[11] [31:0] $end
     $var wire 32 l R[12] [31:0] $end
     $var wire 32 m R[13] [31:0] $end
     $var wire 32 n R[14] [31:0] $end
     $var wire 32 o R[15] [31:0] $end
     $var wire 32 p R[16] [31:0] $end
     $var wire 32 q R[17] [31:0] $end
     $var wire 32 r R[18] [31:0] $end
     $var wire 32 s R[19] [31:0] $end
     $var wire 32 a R[1] [31:0] $end
     $var wire 32 t R[20] [31:0] $end
     $var wire 32 u R[21] [31:0] $end
     $var wire 32 v R[22] [31:0] $end
     $var wire 32 w R[23] [31:0] $end
     $var wire 32 x R[24] [31:0] $end
     $var wire 32 y R[25] [31:0] $end
     $var wire 32 z R[26] [31:0] $end
     $var wire 32 { R[27] [31:0] $end
     $var wire 32 | R[28] [31:0] $end
     $var wire 32 } R[29] [31:0] $end
     $var wire 32 b R[2] [31:0] $end
     $var wire 32 ~ R[30] [31:0] $end
     $var wire 32 !! R[31] [31:0] $end
     $var wire 32 c R[3] [31:0] $end
     $var wire 32 d R[4] [31:0] $end
     $var wire 32 e R[5] [31:0] $end
     $var wire 32 f R[6] [31:0] $end
     $var wire 32 g R[7] [31:0] $end
     $var wire 32 h R[8] [31:0] $end
     $var wire 32 i R[9] [31:0] $end
     $var wire  1 F! clk $end
     $var wire 32 R rdst [31:0] $end
     $var wire  5 Q rdst_id [4:0] $end
     $var wire 32 5 rs1 [31:0] $end
     $var wire  5 1 rs1_id [4:0] $end
     $var wire 32 6 rs2 [31:0] $end
     $var wire  5 2 rs2_id [4:0] $end
     $var wire  1 G! rst $end
     $var wire  1 S we $end
     $scope module unnamedblk1 $end
      $var wire 32 $ i [31:0] $end
     $upscope $end
     $scope module unnamedblk2 $end
      $var wire 32 "! i [31:0] $end
     $upscope $end
    $upscope $end
   $upscope $end
  $upscope $end
 $upscope $end
$enddefinitions $end


#0
b00000000000000000000000000111111 #
b00000000000000000000000000100000 $
b00000000000000000000000000000000 %
b00000000000000000000000000000100 &
b00000000000000000000000000000000 '
b00100000000010000000000000010111 (
b000 )
b00000000000000000000000000000000 *
0+
0,
0-
b1111 .
b00 /
b00000000000000000000000000000000 0
b00000 1
b00000 2
b00000 3
b00000000000000000000000000000000 4
b00000000000000000000000000000000 5
b00000000000000000000000000000000 6
b00000000000000000000000000000000 7
b00000000000000000000000000000000 8
b00000000000000000000000000000000 9
b00000000000000000000000000000000 :
1;
0<
b00000000000000000000000000000000 =
b00000000000000000000000000000000 >
b00000000000000000000000000000000 ?
0@
0A
b0000 B
b00 C
b00000000000000000000000000000000 D
b00000 E
b00000 F
b00000 G
0H
b00000000000000000000000000000000 I
b00000000000000000000000000000000 J
0K
b00000000000000000000000000000000 L
b00000 M
b00000000000000000000000000000000 N
0O
0P
b00000 Q
b00000000000000000000000000000000 R
0S
b00 T
b00 U
b00 V
b00 W
b00000000000000000000000000000000 X
b00000000000000000000000000000000 Y
b0100000000000000000000000000000000 Z
b0100000000000000000000000000000000 \
b000000 ^
b000000 _
b00000000000000000000000000000000 `
b00000000000000000000000000000000 a
b00000000000000000000000000000000 b
b00000000000000000000000000000000 c
b00000000000000000000000000000000 d
b00000000000000000000000000000000 e
b00000000000000000000000000000000 f
b00000000000000000000000000000000 g
b00000000000000000000000000000000 h
b00000000000000000000000000000000 i
b00000000000000000000000000000000 j
b00000000000000000000000000000000 k
b00000000000000000000000000000000 l
b00000000000000000000000000000000 m
b00000000000000000000000000000000 n
b00000000000000000000000000000000 o
b00000000000000000000000000000000 p
b00000000000000000000000000000000 q
b00000000000000000000000000000000 r
b00000000000000000000000000000000 s
b00000000000000000000000000000000 t
b00000000000000000000000000000000 u
b00000000000000000000000000000000 v
b00000000000000000000000000000000 w
b00000000000000000000000000000000 x
b00000000000000000000000000000000 y
b00000000000000000000000000000000 z
b00000000000000000000000000000000 {
b00000000000000000000000000000000 |
b00000000000000000000000000000000 }
b00000000000000000000000000000000 ~
b00000000000000000000000000000000 !!
b00000000000000000000000000000000 "!
b00000000000000000000000000000000 #!
b00000000000000000000000000000000 $!
b00000000000000000000000000000000 %!
b00000000000000000000000000000000 &!
b00000000000000000000000000000000 '!
b00000000000000000000000000000000 (!
b00000000000000000000000000000000 )!
b00000000000000000000000000000000 *!
b00000000000000000000000000000000 +!
b00000000000000000000000000000000 ,!
b00000000000000000000000000000000 -!
b00000000000000000000000000000000 .!
b00000000000000000000000000000000 /!
b00000000000000000000000000000000 0!
b00000000000000000000000000000000 1!
b00000000000000000000000000000000 2!
b00000000000000000000000000000000 3!
b00000000000000000000000000000000 4!
b00000000000000000000000000000000 5!
b00000000000000000000000000000000 6!
b00000000000000000000000000000000 7!
b00000000000000000000000000000000 8!
b00000000000000000000000000000000 9!
b00000000000000000000000000000000 :!
b00000000000000000000000000000000 ;!
b00000000000000000000000000000000 <!
b00000000000000000000000000000000 =!
b00000000000000000000000000000000 >!
b00000000000000000000000000000000 ?!
b00000000000000000000000000000000 @!
b00000000000000000000000000000000 A!
b00000000000000000000000000000000 B!
b00000000000000000000000000000000 C!
b00000000000000000000000000000000 D!
1E!
0F!
1G!
0H!
b00000000000000000000000000100000 I!
b00000000000000000000000000000000 J!
b00000000000000000000000001100100 K!
b000 L!
b001 M!
b010 N!
b011 O!
b100 P!
b00000000000000000000000000000000 Q!
0R!
0S!
0T!
b0000 U!
b0001 V!
b0010 W!
b0110 X!
b1100 Y!
b0111 Z!
b1111 [!
#1
b00000000000000000000000000100000 "!
1F!
#2
0E!
0F!
#3
1F!
#4
b00000000000000000000000000000001 $!
0F!
#5
b00000000000000000000000000000100 %
b00000000000000000000000000001000 &
b00000000000000000000000001100000 '
b00100001000010010000000000101101 (
1+
b0010 .
b00000000000000000000000000010111 0
b01000 2
b01000 3
0;
b00000000000000000000000000000100 >
b00100000000010000000000000010111 ?
b1111 B
b000100 _
1F!
0G!
#6
b00000000000000000000000000000010 $!
0F!
#7
b00000000000000000000000000001000 %
b00000000000000000000000000001100 &
b00000000000000000000000010111100 '
b00100001001010101111111111010011 (
b00000000000000000000000000101101 0
b01000 1
b01001 2
b01001 3
b00000000000000000000000000010111 8
b00000000000000000000000000010111 9
b00000000000000000000000000010111 :
b00000000000000000000000000001000 >
b00100001000010010000000000101101 ?
1A
b0010 B
b00000000000000000000000000010111 D
b01000 F
b01000 G
b001000 _
1F!
#8
b00000000000000000000000000000011 $!
0F!
#9
b00000000000000000000000000001100 %
b00000000000000000000000000010000 &
b11111111111111111111111101011000 '
b00100000000010110000000000000000 (
b11111111111111111111111111010011 0
b01001 1
b01010 2
b01010 3
b00000000000000000000000000010111 4
b00000000000000000000000000010111 7
b00000000000000000000000000101101 8
b00000000000000000000000000101101 9
b00000000000000000000000001000100 :
b00000000000000000000000000001100 >
b00100001001010101111111111010011 ?
b00000000000000000000000000101101 D
b01000 E
b01001 F
b01001 G
b00000000000000000000000000010111 L
b01000 M
1O
b10 T
b010111 ^
b001100 _
1F!
#10
b00000000000000000000000000000100 $!
0F!
#11
b00000000000000000000000000010000 %
b00000000000000000000000000010100 &
b00000000000000000000000000010000 '
b00100000000011000000000000001010 (
b00000000000000000000000000000000 0
b00000 1
b01011 2
b01011 3
b00000000000000000000000001000100 4
b00000000000000000000000001000100 7
b11111111111111111111111111010011 8
b11111111111111111111111111010011 9
b00000000000000000000000000010111 :
b00000000000000000000000000010000 >
b00100000000010110000000000000000 ?
b11111111111111111111111111010011 D
b01001 E
b01010 F
b01010 G
b00000000000000000000000001000100 L
b01001 M
b01000 Q
b00000000000000000000000000010111 R
1S
b000100 ^
b010000 _
1F!
#12
b00000000000000000000000000000101 $!
0F!
#13
b00000000000000000000000000010100 %
b00000000000000000000000000011000 &
b00000000000000000000000000111100 '
b00000000000000000000000000000000 (
b00000000000000000000000000001010 0
b01100 2
b01100 3
b00000000000000000000000000010111 4
b00000000000000000000000000000000 7
b00000000000000000000000000000000 8
b00000000000000000000000000000000 9
b00000000000000000000000000000000 :
1;
b00000000000000000000000000010100 >
b00100000000011000000000000001010 ?
b00000000000000000000000000000000 D
b00000 E
b01011 F
b01011 G
b00000000000000000000000000010111 L
b01010 M
b01001 Q
b00000000000000000000000001000100 R
b00 T
b010111 ^
b010100 _
b00000000000000000000000000010111 h
1F!
#14
b00000000000000000000000000000110 $!
0F!
#15
b00000000000000000000000000011000 %
b00000000000000000000000000011100 &
b00000000000000000000000000011000 '
b00010001000010100000000000000001 (
0+
b1111 .
b00000000000000000000000000000000 0
b00000 2
b00000 3
b00000000000000000000000000000000 4
b00000000000000000000000000001010 8
b00000000000000000000000000001010 9
b00000000000000000000000000001010 :
0;
b00000000000000000000000000011000 >
b00000000000000000000000000000000 ?
b00000000000000000000000000001010 D
b01100 F
b01100 G
b00000000000000000000000000000000 L
b01011 M
b01010 Q
b00000000000000000000000000010111 R
b000000 ^
b011000 _
b00000000000000000000000001000100 i
1F!
#16
b00000000000000000000000000000111 $!
0F!
#17
b00000000000000000000000000011100 %
b00000000000000000000000000100000 &
b00000000000000000000000000100000 '
b10101100000010000000000000000000 (
b001 )
b00000000000000000000000000000001 0
b01000 1
b01010 2
b01010 3
b00000000000000000000000000001010 4
b00000000000000000000000000010111 5
b00000000000000000000000000010111 6
b00000000000000000000000000000000 8
b00000000000000000000000000000000 9
b00000000000000000000000000000000 :
b00000000000000000000000000011100 >
b00010001000010100000000000000001 ?
0A
b1111 B
b00000000000000000000000000000000 D
b00000 F
b00000 G
b00000000000000000000000000001010 L
b01100 M
b01011 Q
b00000000000000000000000000000000 R
b001010 ^
b011100 _
b00000000000000000000000000010111 j
1F!
#18
b00000000000000000000000000001000 $!
0F!
#19
b00000000000000000000000000100000 %
b00000000000000000000000000100100 &
b00000000000000000000000000011100 '
b00100001011010110000000000000001 (
b000 )
b00000000000000000000000000000000 0
b00000 1
b00000 2
b00000 3
b00000000000000000000000000000000 4
b00000000000000000000000000000000 5
b00000000000000000000000000000000 6
b00000000000000000000000000010111 7
b00000000000000000000000000000001 8
b00000000000000000000000000000001 9
b00000000000000000000000000000000 ?
b00000000000000000000000000000001 D
b01000 E
b01010 F
b01010 G
b00000000000000000000000000010111 I
b00000000000000000000000000010111 J
b00000000000000000000000000000000 L
b00000 M
0O
b01100 Q
b00000000000000000000000000001010 R
b1100000000000000000000000000011100 Z
b000000 ^
b100000 _
1F!
#20
b00000000000000000000000000001001 $!
0F!
#21
b00000000000000000000000000100100 %
b00000000000000000000000000101000 &
b00000000000000000000000000101000 '
b00000001100010110110100000101010 (
1+
b0010 .
b00000000000000000000000000000001 0
b01011 1
b01011 2
b01011 3
b00000000000000000000000000000000 7
b00000000000000000000000000000000 8
b00000000000000000000000000000000 9
b00000000000000000000000000100100 >
b00100001011010110000000000000001 ?
b00000000000000000000000000000000 D
b00000 E
b00000 F
b00000 G
b00000000000000000000000000000000 I
b00000000000000000000000000000000 J
b01010 M
b00000000000000000000000000010111 N
b00000 Q
b00000000000000000000000000000000 R
0S
b100100 _
b00000000000000000000000000001010 l
1F!
#22
b00000000000000000000000000001010 $!
0F!
#23
b00000000000000000000000000101000 %
b00000000000000000000000000101100 &
b00000000000000000000000000000000 (
b0111 .
b01 /
b00000000000000000000000000000000 0
b01100 1
b01101 3
b00000000000000000000000000001010 5
b00000000000000000000000000000001 8
b00000000000000000000000000000001 9
b00000000000000000000000000000001 :
b00000000000000000000000000101000 >
b00000001100010110110100000101010 ?
1A
b0010 B
b00000000000000000000000000000001 D
b01011 E
b01011 F
b01011 G
b00000 M
b00000000000000000000000000000000 N
b01010 Q
b101000 _
1F!
#24
b00000000000000000000000000001011 $!
0F!
#25
b00000000000000000000000000101100 %
b00000000000000000000000000110000 &
b00000000000000000000000000101100 '
b00010001101000001111111111111100 (
0+
b1111 .
b00 /
b00000 1
b00000 2
b00000 3
b00000000000000000000000000000001 4
b00000000000000000000000000000000 5
b00000000000000000000000000001010 7
b00000000000000000000000000000000 8
b00000000000000000000000000000000 :
1;
b00000000000000000000000000101100 >
b00000000000000000000000000000000 ?
b0111 B
b01 C
b00000000000000000000000000000000 D
b01100 E
b01101 G
b00000000000000000000000000001010 I
b00000000000000000000000000000001 L
b01011 M
1O
b00000 Q
b10 U
b000001 ^
b101100 _
1F!
#26
b00000000000000000000000000001100 $!
0F!
#27
b00000000000000000000000000110000 %
b00000000000000000000000000110100 &
b00000000000000000000000000100000 '
b00001000000000000000000000001100 (
b001 )
b11111111111111111111111111111100 0
b01101 1
b00000000000000000000000000000000 4
b00000000000000000000000000000000 7
b00000000000000000000000000000000 9
0;
b00000000000000000000000000110000 >
b00010001101000001111111111111100 ?
0A
b1111 B
b00 C
b00000 E
b00000 F
b00000 G
b00000000000000000000000000000000 I
b00000000000000000000000000000000 L
b01101 M
b01011 Q
b00000000000000000000000000000001 R
1S
b00 U
b10 V
b000000 ^
b110000 _
1F!
#28
b00000000000000000000000000001101 $!
0F!
#29
b00000000000000000000000000100000 %
b00000000000000000000000000100100 &
b00000000000000000000000000110000 '
b00100001011010110000000000000001 (
b000 )
b00000000000000000000000000000000 0
b00000 1
b11111111111111111111111111111100 8
b11111111111111111111111111111100 9
b00000000000000000000000000000000 ?
b11111111111111111111111111111100 D
b01101 E
b00000 M
0O
b01101 Q
b00000000000000000000000000000000 R
b01 T
b00 V
b100000 _
b00000000000000000000000000000001 k
1F!
#30
b00000000000000000000000000001110 $!
0F!
#31
b00000000000000000000000000100100 %
b00000000000000000000000000101000 &
b00000000000000000000000000101000 '
b00000001100010110110100000101010 (
1+
b0010 .
b00000000000000000000000000000001 0
b01011 1
b01011 2
b01011 3
b00000000000000000000000000000001 5
b00000000000000000000000000000001 6
b00000000000000000000000000000000 8
b00000000000000000000000000000000 9
b00000000000000000000000000100100 >
b00100001011010110000000000000001 ?
b00000000000000000000000000000000 D
b00000 E
b00000 Q
0S
b00 T
b100100 _
1F!
#32
b00000000000000000000000000001111 $!
0F!
#33
b00000000000000000000000000101000 %
b00000000000000000000000000101100 &
b00000000000000000000000000000000 (
b0111 .
b01 /
b00000000000000000000000000000000 0
b01100 1
b01101 3
b00000000000000000000000000001010 5
b00000000000000000000000000000001 7
b00000000000000000000000000000001 8
b00000000000000000000000000000001 9
b00000000000000000000000000000010 :
b00000000000000000000000000101000 >
b00000001100010110110100000101010 ?
1A
b0010 B
b00000000000000000000000000000001 D
b01011 E
b01011 F
b01011 G
b00000000000000000000000000000001 I
b00000000000000000000000000000001 J
b101000 _
1F!
#34
b00000000000000000000000000010000 $!
0F!
#35
b00000000000000000000000000101100 %
b00000000000000000000000000110000 &
b00000000000000000000000000101100 '
b00010001101000001111111111111100 (
0+
b1111 .
b00 /
b00000 1
b00000 2
b00000 3
b00000000000000000000000000000010 4
b00000000000000000000000000000000 5
b00000000000000000000000000000000 6
b00000000000000000000000000001010 7
b00000000000000000000000000000010 9
b00000000000000000000000000000000 :
1;
b00000000000000000000000000101100 >
b00000000000000000000000000000000 ?
b0111 B
b01 C
b00000000000000000000000000000000 D
b01100 E
b01101 G
b00000000000000000000000000001010 I
b00000000000000000000000000000010 L
b01011 M
b00000000000000000000000000000001 N
1O
b10 U
b000010 ^
b101100 _
1F!
#36
b00000000000000000000000000010001 $!
0F!
#37
b00000000000000000000000000110000 %
b00000000000000000000000000110100 &
b00000000000000000000000000100000 '
b00001000000000000000000000001100 (
b001 )
b11111111111111111111111111111100 0
b01101 1
b00000000000000000000000000000000 4
b00000000000000000000000000000000 7
b00000000000000000000000000000000 8
b00000000000000000000000000000000 9
0;
b00000000000000000000000000110000 >
b00010001101000001111111111111100 ?
0A
b1111 B
b00 C
b00000 E
b00000 F
b00000 G
b00000000000000000000000000000000 I
b00000000000000000000000000000000 J
b00000000000000000000000000000000 L
b01101 M
b01011 Q
b00000000000000000000000000000010 R
1S
b00 U
b10 V
b000000 ^
b110000 _
1F!
#38
b00000000000000000000000000010010 $!
0F!
#39
b00000000000000000000000000100000 %
b00000000000000000000000000100100 &
b00000000000000000000000000110000 '
b00100001011010110000000000000001 (
b000 )
b00000000000000000000000000000000 0
b00000 1
b11111111111111111111111111111100 8
b11111111111111111111111111111100 9
b00000000000000000000000000000000 ?
b11111111111111111111111111111100 D
b01101 E
b00000 M
b00000000000000000000000000000000 N
0O
b01101 Q
b00000000000000000000000000000000 R
b01 T
b00 V
b100000 _
b00000000000000000000000000000010 k
1F!
#40
b00000000000000000000000000010011 $!
0F!
#41
b00000000000000000000000000100100 %
b00000000000000000000000000101000 &
b00000000000000000000000000101000 '
b00000001100010110110100000101010 (
1+
b0010 .
b00000000000000000000000000000001 0
b01011 1
b01011 2
b01011 3
b00000000000000000000000000000010 5
b00000000000000000000000000000010 6
b00000000000000000000000000000000 8
b00000000000000000000000000000000 9
b00000000000000000000000000100100 >
b00100001011010110000000000000001 ?
b00000000000000000000000000000000 D
b00000 E
b00000 Q
0S
b00 T
b100100 _
1F!
#42
b00000000000000000000000000010100 $!
0F!
#43
b00000000000000000000000000101000 %
b00000000000000000000000000101100 &
b00000000000000000000000000000000 (
b0111 .
b01 /
b00000000000000000000000000000000 0
b01100 1
b01101 3
b00000000000000000000000000001010 5
b00000000000000000000000000000010 7
b00000000000000000000000000000001 8
b00000000000000000000000000000001 9
b00000000000000000000000000000011 :
b00000000000000000000000000101000 >
b00000001100010110110100000101010 ?
1A
b0010 B
b00000000000000000000000000000001 D
b01011 E
b01011 F
b01011 G
b00000000000000000000000000000010 I
b00000000000000000000000000000010 J
b101000 _
1F!
#44
b00000000000000000000000000010101 $!
0F!
#45
b00000000000000000000000000101100 %
b00000000000000000000000000110000 &
b00000000000000000000000000101100 '
b00010001101000001111111111111100 (
0+
b1111 .
b00 /
b00000 1
b00000 2
b00000 3
b00000000000000000000000000000011 4
b00000000000000000000000000000000 5
b00000000000000000000000000000000 6
b00000000000000000000000000001010 7
b00000000000000000000000000000010 8
b00000000000000000000000000000011 9
b00000000000000000000000000000000 :
1;
b00000000000000000000000000101100 >
b00000000000000000000000000000000 ?
b0111 B
b01 C
b00000000000000000000000000000000 D
b01100 E
b01101 G
b00000000000000000000000000001010 I
b00000000000000000000000000000011 L
b01011 M
b00000000000000000000000000000010 N
1O
b10 U
b000011 ^
b101100 _
1F!
#46
b00000000000000000000000000010110 $!
0F!
#47
b00000000000000000000000000110000 %
b00000000000000000000000000110100 &
b00000000000000000000000000100000 '
b00001000000000000000000000001100 (
b001 )
b11111111111111111111111111111100 0
b01101 1
b00000000000000000000000000000000 4
b00000000000000000000000000000000 7
b00000000000000000000000000000000 8
b00000000000000000000000000000000 9
0;
b00000000000000000000000000110000 >
b00010001101000001111111111111100 ?
0A
b1111 B
b00 C
b00000 E
b00000 F
b00000 G
b00000000000000000000000000000000 I
b00000000000000000000000000000000 J
b00000000000000000000000000000000 L
b01101 M
b01011 Q
b00000000000000000000000000000011 R
1S
b00 U
b10 V
b000000 ^
b110000 _
1F!
#48
b00000000000000000000000000010111 $!
0F!
#49
b00000000000000000000000000100000 %
b00000000000000000000000000100100 &
b00000000000000000000000000110000 '
b00100001011010110000000000000001 (
b000 )
b00000000000000000000000000000000 0
b00000 1
b11111111111111111111111111111100 8
b11111111111111111111111111111100 9
b00000000000000000000000000000000 ?
b11111111111111111111111111111100 D
b01101 E
b00000 M
b00000000000000000000000000000000 N
0O
b01101 Q
b00000000000000000000000000000000 R
b01 T
b00 V
b100000 _
b00000000000000000000000000000011 k
1F!
#50
b00000000000000000000000000011000 $!
0F!
#51
b00000000000000000000000000100100 %
b00000000000000000000000000101000 &
b00000000000000000000000000101000 '
b00000001100010110110100000101010 (
1+
b0010 .
b00000000000000000000000000000001 0
b01011 1
b01011 2
b01011 3
b00000000000000000000000000000011 5
b00000000000000000000000000000011 6
b00000000000000000000000000000000 8
b00000000000000000000000000000000 9
b00000000000000000000000000100100 >
b00100001011010110000000000000001 ?
b00000000000000000000000000000000 D
b00000 E
b00000 Q
0S
b00 T
b100100 _
1F!
#52
b00000000000000000000000000011001 $!
0F!
#53
b00000000000000000000000000101000 %
b00000000000000000000000000101100 &
b00000000000000000000000000000000 (
b0111 .
b01 /
b00000000000000000000000000000000 0
b01100 1
b01101 3
b00000000000000000000000000001010 5
b00000000000000000000000000000011 7
b00000000000000000000000000000001 8
b00000000000000000000000000000001 9
b00000000000000000000000000000100 :
b00000000000000000000000000101000 >
b00000001100010110110100000101010 ?
1A
b0010 B
b00000000000000000000000000000001 D
b01011 E
b01011 F
b01011 G
b00000000000000000000000000000011 I
b00000000000000000000000000000011 J
b101000 _
1F!
#54
b00000000000000000000000000011010 $!
0F!
#55
b00000000000000000000000000101100 %
b00000000000000000000000000110000 &
b00000000000000000000000000101100 '
b00010001101000001111111111111100 (
0+
b1111 .
b00 /
b00000 1
b00000 2
b00000 3
b00000000000000000000000000000100 4
b00000000000000000000000000000000 5
b00000000000000000000000000000000 6
b00000000000000000000000000001010 7
b00000000000000000000000000000011 8
b00000000000000000000000000000100 9
b00000000000000000000000000000000 :
1;
b00000000000000000000000000101100 >
b00000000000000000000000000000000 ?
b0111 B
b01 C
b00000000000000000000000000000000 D
b01100 E
b01101 G
b00000000000000000000000000001010 I
b00000000000000000000000000000100 L
b01011 M
b00000000000000000000000000000011 N
1O
b10 U
b000100 ^
b101100 _
1F!
#56
b00000000000000000000000000011011 $!
0F!
#57
b00000000000000000000000000110000 %
b00000000000000000000000000110100 &
b00000000000000000000000000100000 '
b00001000000000000000000000001100 (
b001 )
b11111111111111111111111111111100 0
b01101 1
b00000000000000000000000000000000 4
b00000000000000000000000000000000 7
b00000000000000000000000000000000 8
b00000000000000000000000000000000 9
0;
b00000000000000000000000000110000 >
b00010001101000001111111111111100 ?
0A
b1111 B
b00 C
b00000 E
b00000 F
b00000 G
b00000000000000000000000000000000 I
b00000000000000000000000000000000 J
b00000000000000000000000000000000 L
b01101 M
b01011 Q
b00000000000000000000000000000100 R
1S
b00 U
b10 V
b000000 ^
b110000 _
1F!
#58
b00000000000000000000000000011100 $!
0F!
#59
b00000000000000000000000000100000 %
b00000000000000000000000000100100 &
b00000000000000000000000000110000 '
b00100001011010110000000000000001 (
b000 )
b00000000000000000000000000000000 0
b00000 1
b11111111111111111111111111111100 8
b11111111111111111111111111111100 9
b00000000000000000000000000000000 ?
b11111111111111111111111111111100 D
b01101 E
b00000 M
b00000000000000000000000000000000 N
0O
b01101 Q
b00000000000000000000000000000000 R
b01 T
b00 V
b100000 _
b00000000000000000000000000000100 k
1F!
#60
b00000000000000000000000000011101 $!
0F!
